{
  "path": {
    "paging": 30,
    "auth": "/token",
    "lost": "{/anything*}",
    "root": "/",
    "users": {
      "signup": "/signup",
      "root": "/users{/itemid}",
      "posts": "/users{/itemid}/posts",
      "threads": "/users{/itemid}/threads"
    },
    "posts": "/posts{/itemid}",
    "threads": "/threads{/itemid}{/page}",
    "categories": {
      "root": "/categories",
      "category": "/categories{/itemid}{/page}"
    },
    "admin": {
      "main": "/control",
      "seniormods": "/control/seniormods",
      "moderators": "/control/moderators"
    }
  },
  "timeout": {
    "request": 5,
    "token": 5
  }
}
